"","pred","se","DATE"
"1",32.8381888999084,5.84814715998205,2014-01-01
"2",32.6262375898868,5.97565570494264,2014-01-02
"3",33.1487618189192,5.98425154994043,2014-01-03
"4",32.9999712387411,5.98865449142366,2014-01-04
"5",32.2151680932106,5.99091093454403,2014-01-05
"6",32.9904576005934,5.99206761053799,2014-01-06
"7",33.0964705602501,5.99266055503107,2014-01-07
"8",32.4510621233323,5.99296441592506,2014-01-08
"9",34.5082908403449,5.99311990306811,2014-01-09
"10",32.3154494935378,5.99319900883802,2014-01-10
"11",33.6760078115016,5.99323835765514,2014-01-11
"12",31.8500562497428,5.99325616662658,2014-01-12
"13",31.5926509322944,5.99326068055703,2014-01-13
"14",32.2246591260567,5.9931743325558,2014-01-14
"15",32.399792750078,5.9910925610909,2014-01-15
"16",33.1796935372422,5.99109401277205,2014-01-16
"17",33.1727941741643,5.99109475720214,2014-01-17
"18",33.2723336795905,5.99109513892722,2014-01-18
"19",34.9850035076431,5.99109533466611,2014-01-19
"20",33.3389024806106,5.9910954350351,2014-01-20
"21",32.0127427174783,5.99109548650031,2014-01-21
"22",32.4465051571667,5.99109551288675,2014-01-22
"23",32.0671521962029,5.99109552641005,2014-01-23
"24",32.716529490572,5.99109553333099,2014-01-24
"25",33.4051541824942,5.99109553685373,2014-01-25
"26",31.770482745012,5.99109553860887,2014-01-26
"27",31.9187157481106,5.99109553940893,2014-01-27
"28",32.3245353013944,5.99109553962432,2014-01-28
"29",32.4592115138307,5.99109553935474,2014-01-29
"30",33.3516596150548,5.99109553847544,2014-01-30
"31",32.3465715153168,5.99318086683935,2014-01-31
"32",32.2066610923049,5.99327262868982,2014-02-01
"33",33.4492135855787,5.99327890645337,2014-02-02
"34",32.7848227149102,5.99328211421493,2014-02-03
"35",32.3692323805377,5.993283737002,2014-02-04
"36",32.8801347212774,5.9932845260796,2014-02-05
"37",33.1754709432184,5.99328484674902,2014-02-06
"38",32.3944912601729,5.99328484746295,2014-02-07
"39",34.5488002966077,5.99328452855219,2014-02-08
"40",32.2864413441998,5.99328374237746,2014-02-09
"41",33.6967800658256,5.99328212498118,2014-02-10
"42",31.8351815831561,5.9932789275935,2014-02-11
"43",31.6033024341783,5.99327267000797,2014-02-12
"44",32.2170317623291,5.99318080111525,2014-02-13
"45",32.4052545786601,5.99109619253574,2014-02-14
"46",33.1757824124386,5.99109619344904,2014-02-15
"47",33.1755948657275,5.99109619396113,2014-02-16
"48",33.2703281508422,5.99109619422338,2014-02-17
"49",34.9864396334962,5.9910961943575,2014-02-18
"50",33.337874094721,5.99109619442517,2014-02-19
"51",32.0134791275468,5.99109619445833,2014-02-20
"52",32.445977826138,5.99109619447168,2014-02-21
"53",32.067529809201,5.99109619447151,2014-02-22
"54",32.7162590881709,5.99109619445794,2014-02-23
"55",33.4053478131661,5.99109619442484,2014-02-24
"56",31.7703440893014,5.99109619435663,2014-02-25
"57",31.9188150371639,5.99109619422173,2014-02-26
"58",32.3244642021511,5.99109619395768,2014-02-27
"59",32.4592624268188,5.99109619344227,2014-02-28
"60",33.351623157109,5.9910961924369,2014-03-01
"61",32.3465976222468,5.99318080563415,2014-03-02
"62",32.2066423975656,5.99327267492972,2014-03-03
"63",33.4492269725713,5.99327893257883,2014-03-04
"64",32.7848131287071,5.99328213002621,2014-03-05
"65",32.3692392450587,5.99328374752442,2014-03-06
"66",32.8801298057078,5.99328453389003,2014-03-07
"67",33.1754744631762,5.99328485316881,2014-03-08
"68",32.3944887395896,5.99328485316965,2014-03-09
"69",34.5488021015557,5.99328453389324,2014-03-10
"70",32.2864400517066,5.99328374753101,2014-03-11
"71",33.6967809913586,5.99328213003859,2014-03-12
"72",31.8351809203973,5.99327893260161,2014-03-13
"73",31.6033029087689,5.9932726749908,2014-03-14
"74",32.2170314224827,5.99318080608531,2014-03-15
"75",32.4052548220185,5.9910961975006,2014-03-16
"76",33.1757822381737,5.99109619841058,2014-03-17
"77",33.1755949905157,5.99109619892098,2014-03-18
"78",33.2703280614834,5.99109619918235,2014-03-19
"79",34.9864396974845,5.99109619931603,2014-03-20
"80",33.3378740489001,5.99109619938347,2014-03-21
"81",32.0134791603584,5.9910961994165,2014-03-22
"82",32.4459778026422,5.99109619942979,2014-03-23
"83",32.067529826026,5.99109619942959,2014-03-24
"84",32.7162590761228,5.99109619941601,2014-03-25
"85",33.4053478217935,5.9910961993829,2014-03-26
"86",31.7703440831234,5.99109619931468,2014-03-27
"87",31.9188150415878,5.99109619917978,2014-03-28
"88",32.3244641989832,5.99109619891574,2014-03-29
"89",32.4592624290873,5.99109619840033,2014-03-30
"90",33.3516231554846,5.99109619739495,2014-03-31
