"","pred","se","DATE"
"1",57.9887575344569,24.3958398639808,2014-01-01
"2",48.7727409103285,24.5730264697972,2014-01-02
"3",55.1099447472394,24.5994851352439,2014-01-03
"4",50.9232913071095,24.624864592981,2014-01-04
"5",53.039814909661,24.6492097810437,2014-01-05
"6",67.3119627568119,24.672563672589,2014-01-06
"7",57.9768712670232,24.6949673686872,2014-01-07
"8",49.5581031221637,24.7164601861313,2014-01-08
"9",59.0826045717243,24.7370797405758,2014-01-09
"10",51.3969587484712,24.7568620253006,2014-01-10
"11",53.5224962645678,24.7758414858669,2014-01-11
"12",45.2871364570596,24.794051090913,2014-01-12
"13",46.4261665799304,24.8115223993289,2014-01-13
"14",54.070987743073,24.8282427219665,2014-01-14
"15",46.2204713649434,24.8406962402225,2014-01-15
"16",52.4697693253217,24.8561399873374,2014-01-16
"17",51.7865504559563,24.8709606502119,2014-01-17
"18",55.5372816554321,24.8851836529297,2014-01-18
"19",52.3002569296066,24.8988333510419,2014-01-19
"20",53.1525488498161,24.9119330785808,2014-01-20
"21",47.9375299181405,24.9245051928613,2014-01-21
"22",48.0757558341902,24.9365711171475,2014-01-22
"23",52.0596155996749,24.948151381294,2014-01-23
"24",52.8232864426089,24.9592656604743,2014-01-24
"25",46.8286383264077,24.9699328120923,2014-01-25
"26",49.5558487343339,24.9801709109787,2014-01-26
"27",48.5194959746983,24.989997282954,2014-01-27
"28",50.1129772208845,24.9994285368478,2014-01-28
"29",48.1898214329485,25.0084805950502,2014-01-29
"30",45.4208853992027,25.0171687226557,2014-01-30
"31",58.1554643101831,25.082836046113,2014-01-31
"32",48.2175790499642,25.094774999397,2014-02-01
"33",54.5659161800782,25.103846634256,2014-02-02
"34",50.3901727645403,25.1125531430173,2014-02-03
"35",52.5173876005324,25.1209091921194,2014-02-04
"36",66.8000122776406,25.1289288431726,2014-02-05
"37",57.4751875140034,25.1366255783923,2014-02-06
"38",49.0664802049405,25.1440123248921,2014-02-07
"39",58.6008407288965,25.1511014778903,2014-02-08
"40",50.924856264789,25.1579049228864,2014-02-09
"41",53.0598613897904,25.1644340568523,2014-02-10
"42",44.8337793264405,25.1706998084872,2014-02-11
"43",45.9819011362972,25.1767126575842,2014-02-12
"44",53.6356316604697,25.1824284962133,2014-02-13
"45",45.7938459738041,25.1842328916801,2014-02-14
"46",52.0516995391448,25.189563113833,2014-02-15
"47",51.3768646994492,25.1946797962533,2014-02-16
"48",55.1358117940973,25.1995914668342,2014-02-17
"49",51.9068382007388,25.2043063069373,2014-02-18
"50",52.7670197948846,25.2088321655421,2014-02-19
"51",47.5597323165261,25.2131765728592,2014-02-20
"52",47.7055346382524,25.2173467533645,2014-02-21
"53",51.6968188711198,25.2213496382766,2014-02-22
"54",52.4677652901344,25.2251918775063,2014-02-23
"55",46.4802468445986,25.2288798510949,2014-02-24
"56",49.2144439437827,25.2324196801736,2014-02-25
"57",48.1849377633261,25.2358172374548,2014-02-26
"58",49.7851282864398,25.2390781572832,2014-02-27
"59",47.8685472266581,25.2422078452629,2014-02-28
"60",45.1060540705532,25.2452114874699,2014-03-01
"61",57.8469466528097,25.2927302722006,2014-03-02
"62",47.9152484486246,25.2979712079375,2014-03-03
"63",54.2696485586897,25.3014711875261,2014-03-04
"64",50.0998465352593,25.3048299125655,2014-03-05
"65",52.2328836138547,25.3080529524586,2014-03-06
"66",66.5212137735029,25.3111456495234,2014-03-07
"67",57.2019800738648,25.3141131281041,2014-03-08
"68",48.7987517048256,25.3169603032972,2014-03-09
"69",58.3384812933795,25.3196918893069,2014-03-10
"70",50.6677582219014,25.322312407452,2014-03-11
"71",52.8079192268322,25.3248261938321,2014-03-12
"72",44.5868896466781,25.3272374066715,2014-03-13
"73",45.7399626165295,25.3295500333572,2014-03-14
"74",53.3985450094452,25.3317076390384,2014-03-15
"75",45.5615138914718,25.3300415568018,2014-03-16
"76",51.8240266767226,25.3321018447404,2014-03-17
"77",51.1537576202926,25.3340793376166,2014-03-18
"78",54.9171789353533,25.3359773009352,2014-03-19
"79",51.6925898357687,25.3377988682336,2014-03-20
"80",52.55706799644,25.3395470462567,2014-03-21
"81",47.3539909206642,25.3412247199979,2014-03-22
"82",47.5039192089737,25.3428346575366,2014-03-23
"83",51.4992466657163,25.3443795146722,2014-03-24
"84",52.2741552252319,25.3458618393694,2014-03-25
"85",46.2905194628801,25.347284076017,2014-03-26
"86",49.0285213813794,25.3486485695144,2014-03-27
"87",48.0027437178619,25.3499575691849,2014-03-28
"88",49.6065879857171,25.3512132325307,2014-03-29
"89",47.6935873979715,25.3524176288296,2014-03-30
"90",44.9346029106182,25.3535727425794,2014-03-31
