"","pred","se","DATE"
"1",39.9703051864668,18.337540931864,2014-01-01
"2",37.8615423422887,18.5423067028899,2014-01-02
"3",40.1855641554222,18.5601291703573,2014-01-03
"4",36.343120254436,18.5771198905054,2014-01-04
"5",40.9997640532946,18.5933181349474,2014-01-05
"6",46.0195623677523,18.6087612414732,2014-01-06
"7",40.9021040380702,18.6234847148107,2014-01-07
"8",37.2565876359549,18.637522321539,2014-01-08
"9",42.6667555986174,18.6509061795292,2014-01-09
"10",41.6057479049933,18.6636668422844,2014-01-10
"11",37.0456484336445,18.6758333785028,2014-01-11
"12",33.5964150294152,18.6874334471742,2014-01-12
"13",30.7607323922465,18.698493368505,2014-01-13
"14",36.9222693617212,18.7089060117458,2014-01-14
"15",40.1356885949443,18.7124039198806,2014-01-15
"16",34.4592962328947,18.7220077481659,2014-01-16
"17",38.7293417993295,18.7311677072931,2014-01-17
"18",37.8917029380382,18.7399044029621,2014-01-18
"19",37.2985019046686,18.7482374604254,2014-01-19
"20",35.1105014880124,18.7561855724219,2014-01-20
"21",39.8145481602701,18.7637665447353,2014-01-21
"22",43.4391109937339,18.7709973393875,2014-01-22
"23",35.1984264931016,18.7778941155735,2014-01-23
"24",35.0668068528055,18.784472268492,2014-01-24
"25",40.9895056767253,18.7907464661699,2014-01-25
"26",37.1826339409668,18.7967306844054,2014-01-26
"27",35.7553025132363,18.8024382399299,2014-01-27
"28",36.3820127853076,18.8078818218804,2014-01-28
"29",36.1169684017923,18.8130735216884,2014-01-29
"30",37.338496151904,18.8180248614191,2014-01-30
"31",37.2902208241548,18.8403806787869,2014-01-31
"32",37.1317029429971,18.8466506282365,2014-02-01
"33",39.4725643606235,18.8514224837646,2014-02-02
"34",35.6465715234735,18.8559727408523,2014-02-03
"35",40.3192868103209,18.8603114761923,2014-02-04
"36",45.3547857948839,18.8644482912276,2014-02-05
"37",40.2526658733147,18.8683923343553,2014-02-06
"38",36.622133975801,18.8721523220343,2014-02-07
"39",42.046940705179,18.8757365588395,2014-02-08
"40",41.0002340176042,18.879152956528,2014-02-09
"41",36.4541055847997,18.8824090521586,2014-02-10
"42",33.0185208649588,18.8855120253148,2014-02-11
"43",30.1961719957089,18.8884687144914,2014-02-12
"44",36.3707350827093,18.8911263799131,2014-02-13
"45",39.5968798814909,18.887061929637,2014-02-14
"46",33.9329194676763,18.8896467045113,2014-02-15
"47",38.2151101396633,18.8921120479972,2014-02-16
"48",37.3893361595704,18.8944633801753,2014-02-17
"49",36.8077262486697,18.8967058686967,2014-02-18
"50",34.6310495121954,18.8988444402006,2014-02-19
"51",39.3461585930514,18.9008837913828,2014-02-20
"52",42.9815285918562,18.9028283995474,2014-02-21
"53",34.7514019025424,18.9046825326377,2014-02-22
"54",34.6300964728945,18.906450258798,2014-02-23
"55",40.562871527397,18.908135455469,2014-02-24
"56",36.7658435330766,18.9097418180503,2014-02-25
"57",35.3481287218676,18.9112728681492,2014-02-26
"58",35.9842337260035,18.9127319614265,2014-02-27
"59",35.7283673096419,18.9141222950754,2014-02-28
"60",36.9588612634194,18.9154469149119,2014-03-01
"61",36.9193452618726,18.9289611262838,2014-03-02
"62",36.7693846027435,18.9311501686894,2014-03-03
"63",39.1186058013797,18.9325497186226,2014-03-04
"64",35.3007798597828,18.9338825347388,2014-03-05
"65",39.981473607178,18.9351515364358,2014-03-06
"66",45.0247669650496,18.9363595027599,2014-03-07
"67",39.9302615769996,18.9375090785722,2014-03-08
"68",36.3071685226644,18.9386027804175,2014-03-09
"69",41.739242458588,18.9396430020985,2014-03-10
"70",40.6996353011027,18.9406320199803,2014-03-11
"71",36.160442590735,18.9415719980279,2014-03-12
"72",32.7316335652167,18.9424649925909,2014-03-13
"73",29.9159040545085,18.9433129569649,2014-03-14
"74",36.0969337714092,18.9439449030001,2014-03-15
"75",39.3293959953619,18.9378534405828,2014-03-16
"76",33.6716072445939,18.9386117956657,2014-03-17
"77",37.9598271806767,18.9393343336244,2014-03-18
"78",37.1399433513037,18.9400226333897,2014-03-19
"79",36.5640876875136,18.9406781991411,2014-03-20
"80",34.3930324302484,18.9413024633732,2014-03-21
"81",39.1136332857694,18.9418967900402,2014-03-22
"82",42.7543683473716,18.9424624775642,2014-03-23
"83",34.529482932614,18.9430007616829,2014-03-24
"84",34.4132978454507,18.9435128181706,2014-03-25
"85",40.351075100635,18.9439997654183,2014-03-26
"86",36.5589338910827,18.944462666891,2014-03-27
"87",35.1459931117229,18.9449025334645,2014-03-28
"88",35.7867619963399,18.9453203256404,2014-03-29
"89",35.5354518506172,18.9457169556591,2014-03-30
"90",36.770396948076,18.9460932894862,2014-03-31
