"","pred","se","DATE"
"1",0.324044923215727,0.0888968075399126,2014-01-01
"2",0.357903138975276,0.0987289238161216,2014-01-02
"3",0.374076555255926,0.100105879975769,2014-01-03
"4",0.358021869216794,0.101314416185818,2014-01-04
"5",0.354331769166982,0.102376940376508,2014-01-05
"6",0.344158966165504,0.103312444567293,2014-01-06
"7",0.343694877457215,0.104137129952885,2014-01-07
"8",0.323285376189092,0.104864892736992,2014-01-08
"9",0.345463231312667,0.105507707593563,2014-01-09
"10",0.341491104794817,0.106075934438603,2014-01-10
"11",0.320136186782276,0.106578566779924,2014-01-11
"12",0.316565670307518,0.107023434886307,2014-01-12
"13",0.303963828915021,0.107417373540289,2014-01-13
"14",0.276210838111736,0.107765361972801,2014-01-14
"15",0.27795368303898,0.108069727761712,2014-01-15
"16",0.293414476618086,0.108344164165106,2014-01-16
"17",0.302379324787321,0.108587584736473,2014-01-17
"18",0.301383180371078,0.108803553570717,2014-01-18
"19",0.319314902800277,0.108995212364683,2014-01-19
"20",0.33756405646996,0.109165333228618,2014-01-20
"21",0.284730477115732,0.109316364300514,2014-01-21
"22",0.293401791020994,0.109450469268943,2014-01-22
"23",0.275298072828356,0.109569561715236,2014-01-23
"24",0.241566879471329,0.109675335029619,2014-01-24
"25",0.267637347789483,0.109769288530284,2014-01-25
"26",0.275155952587319,0.109852750312947,2014-01-26
"27",0.233596466031178,0.109926897275599,2014-01-27
"28",0.242917136147484,0.10999277269532,2014-01-28
"29",0.220263318248026,0.110051301677923,2014-01-29
"30",0.224390316191411,0.110103304754534,2014-01-30
"31",0.220890541768487,0.110462612783816,2014-01-31
"32",0.261170396585531,0.110613092766911,2014-02-01
"33",0.282864513057802,0.110681787020166,2014-02-02
"34",0.272015451571444,0.110742810581802,2014-02-03
"35",0.273233882331832,0.110797019392082,2014-02-04
"36",0.267689472037208,0.110845172608164,2014-02-05
"37",0.271589625884829,0.110887943640758,2014-02-06
"38",0.255295292514755,0.11092592989049,2014-02-07
"39",0.281353455987873,0.110959661343112,2014-02-08
"40",0.281040182100235,0.110989608161649,2014-02-09
"41",0.263135299848687,0.111016187395572,2014-02-10
"42",0.262817919795399,0.111039768911612,2014-02-11
"43",0.253283552861094,0.111060680637727,2014-02-12
"44",0.228422970593018,0.111078171500775,2014-02-13
"45",0.232893149438954,0.111089619090467,2014-02-14
"46",0.250925623406049,0.111104451492572,2014-02-15
"47",0.262315381841184,0.11111763543501,2014-02-16
"48",0.263605753986299,0.111129353796218,2014-02-17
"49",0.28369349763364,0.111139769071913,2014-02-18
"50",0.303975624766816,0.111149025644858,2014-02-19
"51",0.253058993663601,0.11115725180094,2014-02-20
"52",0.263537852361283,0.111164561518567,2014-02-21
"53",0.247138519341732,0.111171056056992,2014-02-22
"54",0.215014439031321,0.111176825366202,2014-02-23
"55",0.242600299753368,0.111181949338397,2014-02-24
"56",0.251547810963613,0.111186498918807,2014-02-25
"57",0.211335680729292,0.111190537091512,2014-02-26
"58",0.221926811277563,0.111194119754193,2014-02-27
"59",0.200470946497895,0.111197296494089,2014-02-28
"60",0.205727528363064,0.111200111276055,2014-03-01
"61",0.203292870608961,0.111387719140537,2014-03-02
"62",0.244577054096343,0.111441640246473,2014-03-03
"63",0.267218180513712,0.111455021051238,2014-03-04
"64",0.257262081523199,0.11146689921321,2014-03-05
"65",0.259322511908949,0.111477439454191,2014-03-06
"66",0.254572046905878,0.111486787897883,2014-03-07
"67",0.25922083425284,0.11149507411074,2014-03-08
"68",0.243632408610034,0.111502412909639,2014-03-09
"69",0.270356192469973,0.111508905962245,2014-03-10
"70",0.270670550894938,0.111514643202885,2014-03-11
"71",0.253357480925022,0.111519704084103,2014-03-12
"72",0.253598137431764,0.111524158681593,2014-03-13
"73",0.244589958973089,0.11152806866835,2014-03-14
"74",0.220225534719949,0.111530438430084,2014-03-15
"75",0.225163555008991,0.111528439844161,2014-03-16
"76",0.243637169921711,0.111531339384959,2014-03-17
"77",0.255442892647256,0.111533915262856,2014-03-18
"78",0.257125489301596,0.111536203119506,2014-03-19
"79",0.27758307254619,0.111538234611006,2014-03-20
"80",0.298213931909196,0.111540037844597,2014-03-21
"81",0.247626130301324,0.111541637768103,2014-03-22
"82",0.258415051642369,0.111543056515528,2014-03-23
"83",0.242308085469988,0.11154431371361,2014-03-24
"84",0.210459686139383,0.111545426753608,2014-03-25
"85",0.238305494264368,0.111546411032098,2014-03-26
"86",0.247498117242359,0.111547280164128,2014-03-27
"87",0.207517109835228,0.111548046171676,2014-03-28
"88",0.218326172642482,0.111548719650053,2014-03-29
"89",0.197075802361486,0.111549309914533,2014-03-30
"90",0.202526150808905,0.111549825129264,2014-03-31
